module gitlab.com/cs.watch/backend/stats-service

go 1.19

require (
	github.com/caarlos0/env/v7 v7.1.0
	github.com/gofiber/fiber/v2 v2.45.0
	github.com/gofiber/swagger v0.1.11
	github.com/markus-wa/demoinfocs-golang/v3 v3.3.0
	github.com/matishsiao/goInfo v0.0.0-20210923090445-da2e3fa8d45f
	github.com/rabbitmq/amqp091-go v1.7.0
	github.com/rs/zerolog v1.29.1
	github.com/swaggo/swag v1.16.1
)

require (
	github.com/KyleBanks/depth v1.2.1 // indirect
	github.com/PuerkitoBio/purell v1.1.1 // indirect
	github.com/PuerkitoBio/urlesc v0.0.0-20170810143723-de5bf2ad4578 // indirect
	github.com/andybalholm/brotli v1.0.5 // indirect
	github.com/go-openapi/jsonpointer v0.19.5 // indirect
	github.com/go-openapi/jsonreference v0.19.6 // indirect
	github.com/go-openapi/spec v0.20.4 // indirect
	github.com/go-openapi/swag v0.19.15 // indirect
	github.com/golang/geo v0.0.0-20210211234256-740aa86cb551 // indirect
	github.com/google/go-cmp v0.5.9 // indirect
	github.com/google/uuid v1.3.0 // indirect
	github.com/josharian/intern v1.0.0 // indirect
	github.com/klauspost/compress v1.16.3 // indirect
	github.com/mailru/easyjson v0.7.6 // indirect
	github.com/markus-wa/go-unassert v0.1.3 // indirect
	github.com/markus-wa/gobitread v0.2.3 // indirect
	github.com/markus-wa/godispatch v1.4.1 // indirect
	github.com/markus-wa/ice-cipher-go v0.0.0-20220126215401-a6adadccc817 // indirect
	github.com/markus-wa/quickhull-go/v2 v2.2.0 // indirect
	github.com/mattn/go-colorable v0.1.13 // indirect
	github.com/mattn/go-isatty v0.0.18 // indirect
	github.com/mattn/go-runewidth v0.0.14 // indirect
	github.com/oklog/ulid/v2 v2.1.0 // indirect
	github.com/philhofer/fwd v1.1.2 // indirect
	github.com/pkg/errors v0.9.1 // indirect
	github.com/rivo/uniseg v0.2.0 // indirect
	github.com/savsgio/dictpool v0.0.0-20221023140959-7bf2e61cea94 // indirect
	github.com/savsgio/gotils v0.0.0-20230208104028-c358bd845dee // indirect
	github.com/stretchr/testify v1.8.1 // indirect
	github.com/swaggo/files/v2 v2.0.0 // indirect
	github.com/tinylib/msgp v1.1.8 // indirect
	github.com/valyala/bytebufferpool v1.0.0 // indirect
	github.com/valyala/fasthttp v1.47.0 // indirect
	github.com/valyala/tcplisten v1.0.0 // indirect
	golang.org/x/net v0.8.0 // indirect
	golang.org/x/sys v0.8.0 // indirect
	golang.org/x/text v0.8.0 // indirect
	golang.org/x/tools v0.7.0 // indirect
	google.golang.org/protobuf v1.28.1 // indirect
	gopkg.in/yaml.v2 v2.4.0 // indirect
)
